DQBCLEARBIT.......bit               DQBCOMPLEMENTBIT..bit
DQBREADBIT........bit               DQBSETBIT.........bit
DQBSHIFTARITHRIGHT..bit             DQBSHIFTLEFT......bit
DQBSHIFTRIGHT.....bit               

bit               Offset: 00000010H  Code and data size: 175H
  DQBCLEARBIT       DQBCOMPLEMENTBIT  DQBREADBIT        DQBSETBIT
  DQBSHIFTARITHRIGHT                  DQBSHIFTLEFT      DQBSHIFTRIGHT
